<svg width="20" height="20" viewBox="0 0 20 20" fill="none" xmlns="http://www.w3.org/2000/svg">
<path fill-rule="evenodd" clip-rule="evenodd" d="M0 4.87314C0 4.41248 0.135106 3.95742 0.43895 3.60255C1.42256 2.45374 3.01661 1.16067 4.0599 0.409315C4.44205 0.1341 4.90947 0 5.38601 0H14.722C15.2385 0 15.7418 0.159417 16.149 0.466573C17.1597 1.22902 19.0978 2.76049 19.7964 3.79451C19.9546 4.02877 20 4.30998 20 4.58978V17.6667C20 18.9553 18.9193 20 17.5862 20H2.41379C1.08069 20 0 18.9553 0 17.6667V4.87314ZM5.34483 1.66667H14.8276L16.5517 3.33333H3.44828L5.34483 1.66667ZM8.27582 8.99999C8.27582 8.8159 8.43022 8.66666 8.62065 8.66666H11.7241C11.9145 8.66666 12.0689 8.8159 12.0689 8.99999V10.3333H14.4827C14.8275 10.3333 14.9103 10.9199 14.6847 11.1381L10.4162 15.2643C10.2815 15.3945 10.0632 15.3945 9.92853 15.2643L5.66003 11.1381C5.43441 10.9199 5.34479 10.3333 5.86203 10.3333H8.27582V8.99999Z" fill="white"/>
</svg>
