<svg width="128" height="128" xmlns="http://www.w3.org/2000/svg">

 <g>
  <title>background</title>
  <rect fill="none" id="canvas_background" height="130" width="130" y="-1" x="-1"/>
 </g>
 <g>
  <title>Layer 1</title>
  <rect id="svg_3" height="54.535875" width="67.167346" y="29.113079" x="32.02032" stroke-opacity="null" stroke-width="null" stroke="null" fill="#ffffff"/>
  <rect stroke="null" id="svg_1" width="128" height="128" fill-rule="evenodd" fill="none" clip-rule="evenodd"/>
  <path id="Hanghout_1_" fill-rule="evenodd" fill="#7EB949" d="m82.445,78.415c-0.046,0.026 -0.092,0.053 -0.138,0.079c-1.234,0.351 -2.48,0.641 -3.753,0.828c-0.971,0.143 -1.705,-0.408 -1.717,-1.388c-0.01,-0.687 -0.015,-1.376 -0.02,-2.064c0.012,-1.232 0.024,-2.464 0.035,-3.695c-0.006,-0.272 -0.015,-0.542 -0.015,-0.812c0.001,-0.946 0.364,-1.345 1.535,-1.614c1.485,-0.342 2.882,-0.823 4.038,-1.9c1.387,-1.294 2.088,-2.909 2.406,-4.734c-4.006,-0.008 -8.011,-0.015 -12.019,-0.023c-0.436,-0.001 -0.872,0.006 -1.308,-0.002c-1.636,-0.027 -2.756,-1.163 -2.756,-2.815c0.002,-6.504 0.011,-13.007 0.015,-19.512c0,-0.063 -0.007,-0.125 -0.011,-0.188c-0.126,-1.217 0.222,-2.215 1.299,-2.891c0.418,-0.264 0.873,-0.373 1.355,-0.373c6.335,-0.003 12.669,0.002 19.005,-0.006c1.687,-0.002 2.647,1.494 2.647,3.457c0,0.904 0.006,15.276 0,22.465c-0.006,6.422 -4.013,12.431 -9.92,14.898c-0.149,0.064 -0.291,0.147 -0.436,0.22c0.105,0.131 0.231,0.167 0.362,0.172c-0.131,-0.004 -0.258,-0.041 -0.362,-0.172c0.002,0.002 -0.159,0.046 -0.242,0.07zm-37.89,0.933c-0.74,0.109 -1.222,-0.304 -1.498,-0.974c0.003,-2.066 0.005,-4.13 0.008,-6.196c0.036,-0.608 -0.208,-1.26 0.277,-1.796c0.24,-0.266 0.513,-0.448 0.88,-0.54c1.077,-0.273 2.169,-0.49 3.149,-1.078c1.806,-1.083 2.931,-2.646 3.429,-4.683c0.078,-0.321 0.152,-0.643 0.226,-0.965c-4.337,-0.008 -8.673,-0.016 -13.011,-0.022c-0.375,-0.001 -0.745,-0.014 -1.111,-0.115c-1.105,-0.307 -1.952,-1.32 -1.953,-2.466c-0.008,-6.585 0.005,-13.171 0.01,-19.757c-0.091,-1.052 0.001,-2.039 0.882,-2.791c0.479,-0.407 1.004,-0.653 1.633,-0.653c6.377,-0.001 12.754,0.003 19.132,-0.003c1.688,-0.003 2.638,0.526 2.638,3.447c0,0.486 0.055,15.264 0,22.439c-0.035,4.762 -1.882,8.767 -5.353,12.015c-0.181,0.169 -0.357,0.345 -0.534,0.517c-1.798,1.384 -3.744,2.477 -5.951,3.076c-0.939,0.258 -1.896,0.404 -2.853,0.545zm73.263,-34.196c-1.935,-10.592 -6.553,-19.843 -13.849,-27.738c-3.08,-3.333 -6.53,-6.229 -10.338,-8.688c-7.094,-4.579 -14.822,-7.385 -23.202,-8.379c-1.023,-0.122 -2.059,-0.106 -3.066,-0.347l-7.231,0c-0.078,0.183 -0.246,0.116 -0.379,0.129c-1.862,0.165 -3.715,0.378 -5.552,0.728c-13.428,2.553 -24.456,9.174 -32.991,19.869c-7.021,8.795 -10.887,18.884 -11.723,30.134c-0.405,5.452 -0.012,10.854 1.178,16.184c0.884,3.965 2.204,7.795 3.979,11.456c0.156,0.312 0.31,0.623 0.468,0.935c2.915,5.765 6.665,10.902 11.365,15.339c2.474,2.336 5.119,4.449 7.981,6.274c8.772,5.591 18.347,8.522 28.749,8.653c0.639,0.009 0.812,0.167 0.808,0.822c-0.029,5.591 -0.017,11.182 -0.015,16.774c0.001,0.217 0.017,0.433 0.03,0.703c0.18,-0.074 0.293,-0.115 0.402,-0.167c10.457,-4.933 20.058,-11.168 28.618,-18.982c1.703,-1.555 3.333,-3.183 4.9,-4.88c0.671,-0.725 1.337,-1.463 2.009,-2.188c1.039,-1.116 1.938,-2.362 2.917,-3.537c1.131,-1.355 2.147,-2.795 3.148,-4.245c2.214,-3.204 4.192,-6.546 5.854,-10.076c0.841,-1.785 1.642,-3.583 2.35,-5.425c0.024,-0.035 0.055,-0.065 0.071,-0.103c1.931,-5.041 3.169,-10.258 3.828,-15.61c0.23,-1.864 0.379,-3.74 0.473,-5.614c0.202,-4.036 -0.058,-8.049 -0.782,-12.021z" clip-rule="evenodd"/>
 </g>
</svg>